"config_file"	"samplers_threads"	"processors_threads"	"strategy"	"threshold_x_cycle"	"num_of_cycles"	"bbque_process_ms"	"bbque_min"	"bbque_max"	"bbque_avg"	"bbque_var"
"000_low"	1	1	"num_image"	15	3	26736	5715.299	13054.216	8912.449	9422769.569
"001_low"	2	1	"num_image"	15	3	28496	4242.815	16975.724	9499.19	29485715.133
"002_low"	3	1	"num_image"	15	3	32766	4358.078	19136.603	10922.276	37762260.382
"003_low"	4	1	"num_image"	15	3	38936	4206.449	23940.336	12979.013	67299714.334
"004_low"	2	2	"num_image"	15	3	23823	4813.657	11765.371	7941.458	8296674.156
"005_low"	3	2	"num_image"	15	3	23794	4527.782	13391.465	7931.992	15206202.087
"006_low"	3	3	"num_image"	15	3	21502	4748.276	10696.759	7167.987	6512414.631
"007_low"	2	3	"num_image"	15	3	21671	5367.885	9248.155	7224.128	2523490.864
"008_low"	3	4	"num_image"	15	3	22844	5151.507	10625.754	7615.412	5143859.603
"010_medium"	4	2	"num_image"	15	3	27287	3806.176	16424.375	9096.175	28613621.433
"011_medium"	4	4	"num_image"	15	3	22571	4986.658	11546.842	7524.196	8275442.762
"012_medium"	5	2	"num_image"	15	3	31788	3854.648	19554.962	10596.606	43539523.96
"013_medium"	5	4	"num_image"	15	3	23736	4544.424	13096.633	7912.546	13838911.458
"014_medium"	6	6	"num_image"	15	3	23263	4696.402	12598.397	7754.836	12000258.887
"015_medium"	8	3	"num_image"	15	3	33113	5323.092	19793.56	11038.08	39521371.458
"016_medium"	12	4	"num_image"	15	3	41538	5469.907	26698.531	13846.592	85123027.844
"020_high"	16	6	"num_image"	15	3	36025	5331.553	21978.819	12009.074	51607948.916
