23:31:58,737 - INFO   opencvcameracalibration : [32m.:: OpenCVCameraCalibration (ver. -128-NOTFOUND) ::.[0m
23:31:58,737 - INFO   opencvcameracalibration : [32mBuilt: Nov 27 2020 23:04:23[0m
23:31:58,737 - INFO   opencvcameracalibration : [32mSTEP 0. Initializing RTLib, application [opencvcameracalibration]...[0m
23:31:58,738 - INFO   opencvcameracalibration : [32mSTEP 1. Registering EXC with recipe <OpenCVCameraCalibration>...[0m
23:31:58,768 - INFO   opencvcameracalibration : [32mSetup - config file contrib/user/OpenCVCameraCalibration/config/tests/005_low.xml found[0m
23:31:58,768 - INFO   opencvcameracalibration : [32mCalibration Config - input type IMAGE_LIST of 673[0m
23:31:58,768 - INFO   opencvcameracalibration : [32mCalibration Config - pattern CHESSBOARD[0m
23:31:58,768 - INFO   opencvcameracalibration : [32mCalibration Config - synchType NUM_IMAGE[0m
23:31:58,769 - INFO   opencvcameracalibration : [32mDebug - CameraMatrix
[1, 0, 0;
 0, 1, 0;
 0, 0, 1][0m
23:31:58,769 - INFO   opencvcameracalibration : [32mCalibration Data - setup correctly initialized [0m
23:31:58,769 - WARN   exc             : [1;33mNew OpenCVCameraCalibration::OpenCVCameraCalibration()[0m
23:31:58,769 - NOTICE exc             : [36mEXC Unique IDentifier (UID): 86304[0m
23:31:58,769 - INFO   opencvcameracalibration : [32mSTEP 2. Starting EXC control thread...[0m
23:31:58,769 - INFO   opencvcameracalibration : [32mSTEP 3. Waiting for EXC completion...[0m
23:31:58,769 - WARN   exc             : [1;33mOpenCVCameraCalibration::onSetup()[0m
23:31:58,769 - NOTICE exc             : [36mSetting file: contrib/user/OpenCVCameraCalibration/config/tests/005_low.xml[0m
23:31:58,769 - INFO   opencvcameracalibration : [32mSetup - config file contrib/user/OpenCVCameraCalibration/config/tests/005_low.xml found[0m
23:31:58,769 - INFO   opencvcameracalibration : [32mCalibration Config - input type IMAGE_LIST of 673[0m
23:31:58,769 - INFO   opencvcameracalibration : [32mCalibration Config - pattern CHESSBOARD[0m
23:31:58,769 - INFO   opencvcameracalibration : [32mCalibration Config - synchType NUM_IMAGE[0m
23:31:58,769 - INFO   opencvcameracalibration : [32mSetup - config file contrib/user/OpenCVCameraCalibration/config/tests/005_low.xml found[0m
23:31:58,770 - INFO   opencvcameracalibration : [32mCalibration Config - input type IMAGE_LIST of 673[0m
23:31:58,770 - INFO   opencvcameracalibration : [32mCalibration Config - pattern CHESSBOARD[0m
23:31:58,770 - INFO   opencvcameracalibration : [32mCalibration Config - synchType NUM_IMAGE[0m
23:31:58,770 - INFO   opencvcameracalibration : [32mSetup - config file contrib/user/OpenCVCameraCalibration/config/tests/005_low.xml found[0m
23:31:58,770 - INFO   opencvcameracalibration : [32mCalibration Config - input type IMAGE_LIST of 673[0m
23:31:58,770 - INFO   opencvcameracalibration : [32mCalibration Config - pattern CHESSBOARD[0m
23:31:58,770 - INFO   opencvcameracalibration : [32mCalibration Config - synchType NUM_IMAGE[0m
23:31:58,770 - INFO   opencvcameracalibration : [32mSetup - config file contrib/user/OpenCVCameraCalibration/config/tests/005_low.xml found[0m
23:31:58,771 - INFO   opencvcameracalibration : [32mCalibration Config - input type IMAGE_LIST of 673[0m
23:31:58,771 - INFO   opencvcameracalibration : [32mCalibration Config - pattern CHESSBOARD[0m
23:31:58,771 - INFO   opencvcameracalibration : [32mCalibration Config - synchType NUM_IMAGE[0m
23:31:58,771 - INFO   opencvcameracalibration : [32mSetup - config file contrib/user/OpenCVCameraCalibration/config/tests/005_low.xml found[0m
23:31:58,771 - INFO   opencvcameracalibration : [32mCalibration Config - input type IMAGE_LIST of 673[0m
23:31:58,771 - INFO   opencvcameracalibration : [32mCalibration Config - pattern CHESSBOARD[0m
23:31:58,771 - INFO   opencvcameracalibration : [32mCalibration Config - synchType NUM_IMAGE[0m
23:31:58,771 - INFO   opencvcameracalibration : [32mSetup - config file contrib/user/OpenCVCameraCalibration/config/tests/005_low.xml found[0m
23:31:58,771 - INFO   opencvcameracalibration : [32mCalibration Config - input type IMAGE_LIST of 673[0m
23:31:58,772 - INFO   opencvcameracalibration : [32mCalibration Config - pattern CHESSBOARD[0m
23:31:58,772 - INFO   opencvcameracalibration : [32mCalibration Config - synchType NUM_IMAGE[0m
23:31:58,826 - WARN   exc             : [1;33mOpenCVCameraCalibration::onConfigure(): EXC [OpenCVCameraCalibration] => AWM [02][0m
23:31:58,826 - NOTICE exc             : [36mMayApp::onConfigure(): EXC [OpenCVCameraCalibration], AWM[02] => R<PROC_quota>= 50, R<PROC_nr>= 1, R<MEM>=  0[0m
23:31:58,826 - WARN   exc             : [1;33mSkipped State is not Enabled[0m
23:31:58,826 - WARN   exc             : [1;33mOpenCVCameraCalibration::onRun()      : Cycle [0] EXC [OpenCVCameraCalibration]  @ AWM [02][0m
23:31:58,826 - NOTICE exc             : [36mMain - sveglia i thread creati[0m
23:31:58,841 - INFO   opencvcameracalibration : [32mSampler e' partito[0m
23:31:58,841 - INFO   opencvcameracalibration : [32mSampler e' partito[0m
23:31:58,841 - INFO   opencvcameracalibration : [32mSampler e' partito[0m
23:31:58,841 - INFO   opencvcameracalibration : [32mProcessor e' partito[0m
23:31:58,841 - INFO   opencvcameracalibration : [32mProcessor e' partito[0m
23:31:59,329 - INFO   opencvcameracalibration : [32mCalibrazione Completata[0m
23:31:59,329 - INFO   opencvcameracalibration : [32mDebug - CalibratationMatrix
[948.8950206971355, 0, 476.1319967930935;
 0, 1173.487866240153, 281.6591907579794;
 0, 0, 1][0m
23:31:59,329 - INFO   opencvcameracalibration : [32mDebug - RMS Errror
0.347448[0m
23:31:59,335 - INFO   opencvcameracalibration : [32mCalibrazione Completata[0m
23:31:59,335 - INFO   opencvcameracalibration : [32mDebug - CalibratationMatrix
[959.9315753030521, 0, 460.6453521298558;
 0, 1213.964676755084, 283.3027303697805;
 0, 0, 1][0m
23:31:59,335 - INFO   opencvcameracalibration : [32mDebug - RMS Errror
0.345831[0m
23:31:59,780 - INFO   opencvcameracalibration : [32mCalibrazione Completata[0m
23:31:59,780 - INFO   opencvcameracalibration : [32mDebug - CalibratationMatrix
[975.0747827394224, 0, 456.8913046156599;
 0, 1245.088076234736, 280.1795538627145;
 0, 0, 1][0m
23:31:59,781 - INFO   opencvcameracalibration : [32mDebug - RMS Errror
0.34669[0m
23:32:00,214 - INFO   opencvcameracalibration : [32mCalibrazione Completata[0m
23:32:00,214 - INFO   opencvcameracalibration : [32mDebug - CalibratationMatrix
[843.8877017830824, 0, 459.090445487097;
 0, 956.1027371445487, 258.1894290095273;
 0, 0, 1][0m
23:32:00,214 - INFO   opencvcameracalibration : [32mDebug - RMS Errror
0.366489[0m
23:32:00,220 - INFO   opencvcameracalibration : [32mCalibrazione Completata[0m
23:32:00,220 - INFO   opencvcameracalibration : [32mDebug - CalibratationMatrix
[899.0080829254327, 0, 458.5000355341189;
 0, 1067.242880137052, 268.1496716485631;
 0, 0, 1][0m
23:32:00,220 - INFO   opencvcameracalibration : [32mDebug - RMS Errror
0.355194[0m
23:32:00,754 - INFO   opencvcameracalibration : [32mCalibrazione Completata[0m
23:32:00,754 - INFO   opencvcameracalibration : [32mDebug - CalibratationMatrix
[848.1482712497223, 0, 449.2200721844971;
 0, 956.2186675105741, 251.1912439679461;
 0, 0, 1][0m
23:32:00,754 - INFO   opencvcameracalibration : [32mDebug - RMS Errror
0.377385[0m
23:32:01,747 - INFO   opencvcameracalibration : [32mCalibrazione Completata[0m
23:32:01,747 - INFO   opencvcameracalibration : [32mDebug - CalibratationMatrix
[852.5497409017562, 0, 441.7521266227062;
 0, 962.4853141268644, 254.1236235669541;
 0, 0, 1][0m
23:32:01,747 - INFO   opencvcameracalibration : [32mDebug - RMS Errror
0.405644[0m
23:32:01,781 - INFO   opencvcameracalibration : [32mCalibrazione Completata[0m
23:32:01,781 - INFO   opencvcameracalibration : [32mDebug - CalibratationMatrix
[773.395535734863, 0, 582.4624298171456;
 0, 830.7013406252249, 290.0837125820952;
 0, 0, 1][0m
23:32:01,781 - INFO   opencvcameracalibration : [32mDebug - RMS Errror
0.422503[0m
23:32:01,863 - INFO   opencvcameracalibration : [32mCalibrazione Completata[0m
23:32:01,907 - INFO   opencvcameracalibration : [32mDebug - CalibratationMatrix
[809.7647589389215, 0, 456.074443173799;
 0, 887.8703730751738, 263.4880841313866;
 0, 0, 1][0m
23:32:01,907 - INFO   opencvcameracalibration : [32mDebug - RMS Errror
0.436807[0m
23:32:02,733 - INFO   opencvcameracalibration : [32mCalibrazione Completata[0m
23:32:02,733 - INFO   opencvcameracalibration : [32mDebug - CalibratationMatrix
[763.5445502144789, 0, 560.8477341017467;
 0, 796.3733913879936, 231.7771118647856;
 0, 0, 1][0m
23:32:02,733 - INFO   opencvcameracalibration : [32mDebug - RMS Errror
0.497875[0m
23:32:02,877 - INFO   opencvcameracalibration : [32mCalibrazione Completata[0m
23:32:02,877 - INFO   opencvcameracalibration : [32mDebug - CalibratationMatrix
[737.1441565420201, 0, 395.7393399459934;
 0, 749.6000853030587, 261.982552003832;
 0, 0, 1][0m
23:32:02,877 - INFO   opencvcameracalibration : [32mDebug - RMS Errror
0.596949[0m
23:32:03,847 - INFO   opencvcameracalibration : [32mCalibrazione Completata[0m
23:32:03,847 - INFO   opencvcameracalibration : [32mDebug - CalibratationMatrix
[722.9145927158771, 0, 397.628529840164;
 0, 728.3442324905136, 275.4408925265229;
 0, 0, 1][0m
23:32:03,847 - INFO   opencvcameracalibration : [32mDebug - RMS Errror
0.663002[0m
23:32:03,917 - INFO   opencvcameracalibration : [32mCalibrazione Completata[0m
23:32:03,917 - INFO   opencvcameracalibration : [32mDebug - CalibratationMatrix
[751.3236623851677, 0, 360.6985686942005;
 0, 749.8556067342741, 246.100833713342;
 0, 0, 1][0m
23:32:03,917 - INFO   opencvcameracalibration : [32mDebug - RMS Errror
0.667903[0m
23:32:04,957 - INFO   opencvcameracalibration : [32mCalibrazione Completata[0m
23:32:04,957 - INFO   opencvcameracalibration : [32mDebug - CalibratationMatrix
[761.915185992238, 0, 373.2481055314424;
 0, 752.373835864941, 245.6691505049171;
 0, 0, 1][0m
23:32:04,957 - INFO   opencvcameracalibration : [32mDebug - RMS Errror
0.895127[0m
23:32:04,960 - INFO   opencvcameracalibration : [32mCalibrazione Completata[0m
23:32:04,960 - INFO   opencvcameracalibration : [32mDebug - CalibratationMatrix
[761.915185992238, 0, 373.2481055314424;
 0, 752.373835864941, 245.6691505049171;
 0, 0, 1][0m
23:32:04,960 - INFO   opencvcameracalibration : [32mDebug - RMS Errror
0.804147[0m
23:32:04,967 - NOTICE exc             : [36mMain - analizzate 15 immagini[0m
23:32:04,974 - INFO   opencvcameracalibration : [32mProcessor e' stato stoppato[0m
23:32:04,977 - INFO   opencvcameracalibration : [32mProcessor e' stato stoppato[0m
23:32:05,055 - INFO   opencvcameracalibration : [32mSampler e' stato stoppato[0m
23:32:05,103 - INFO   opencvcameracalibration : [32mSampler e' stato stoppato[0m
23:32:05,110 - INFO   opencvcameracalibration : [32mSampler e' stato stoppato[0m
23:32:05,110 - NOTICE exc             : [36mMain - ha messo in pausa i threads[0m
23:32:05,110 - WARN   exc             : [1;33mOpenCVCameraCalibration::onMonitor()  : EXC [OpenCVCameraCalibration]  @ AWM [02] => cycles [1], CPS = 0.00[0m
23:32:05,111 - WARN   exc             : [1;33mOpenCVCameraCalibration::onRun()      : Cycle [1] EXC [OpenCVCameraCalibration]  @ AWM [02][0m
23:32:05,111 - INFO   opencvcameracalibration : [32mProcessor e' ripartito[0m
23:32:05,117 - INFO   opencvcameracalibration : [32mProcessor e' ripartito[0m
23:32:05,126 - INFO   opencvcameracalibration : [32mSampler e' ripartito[0m
23:32:05,137 - INFO   opencvcameracalibration : [32mSampler e' ripartito[0m
23:32:05,153 - INFO   opencvcameracalibration : [32mSampler e' ripartito[0m
23:32:05,177 - NOTICE exc             : [36mMain - sveglia i thread stoppati[0m
23:32:05,989 - INFO   opencvcameracalibration : [32mCalibrazione Completata[0m
23:32:05,989 - INFO   opencvcameracalibration : [32mDebug - CalibratationMatrix
[778.4949894213632, 0, 383.8517207539114;
 0, 766.3894215080875, 233.7062316491937;
 0, 0, 1][0m
23:32:05,989 - INFO   opencvcameracalibration : [32mDebug - RMS Errror
1.00759[0m
23:32:06,043 - INFO   opencvcameracalibration : [32mCalibrazione Completata[0m
23:32:06,090 - INFO   opencvcameracalibration : [32mDebug - CalibratationMatrix
[739.2867701217081, 0, 444.1477075276568;
 0, 741.5256698858169, 259.663771867216;
 0, 0, 1][0m
23:32:06,092 - INFO   opencvcameracalibration : [32mDebug - RMS Errror
1.12495[0m
23:32:07,001 - INFO   opencvcameracalibration : [32mCalibrazione Completata[0m
23:32:07,001 - INFO   opencvcameracalibration : [32mDebug - CalibratationMatrix
[771.6052361077456, 0, 384.396497711659;
 0, 757.3298010361242, 238.9371951092296;
 0, 0, 1][0m
23:32:07,001 - INFO   opencvcameracalibration : [32mDebug - RMS Errror
0.997414[0m
23:32:07,103 - INFO   opencvcameracalibration : [32mCalibrazione Completata[0m
23:32:07,103 - INFO   opencvcameracalibration : [32mDebug - CalibratationMatrix
[801.2140952485883, 0, 491.1311531905286;
 0, 811.0907937749671, 189.9029521231881;
 0, 0, 1][0m
23:32:07,103 - INFO   opencvcameracalibration : [32mDebug - RMS Errror
1.18423[0m
23:32:08,009 - INFO   opencvcameracalibration : [32mCalibrazione Completata[0m
23:32:08,009 - INFO   opencvcameracalibration : [32mDebug - CalibratationMatrix
[761.3188751415229, 0, 485.7062220159733;
 0, 767.5345493382961, 229.8657766227909;
 0, 0, 1][0m
23:32:08,009 - INFO   opencvcameracalibration : [32mDebug - RMS Errror
1.15108[0m
23:32:08,817 - INFO   opencvcameracalibration : [32mCalibrazione Completata[0m
23:32:08,817 - INFO   opencvcameracalibration : [32mDebug - CalibratationMatrix
[811.6488709682355, 0, 506.6372467047378;
 0, 826.8904134371581, 179.6573512835202;
 0, 0, 1][0m
23:32:08,817 - INFO   opencvcameracalibration : [32mDebug - RMS Errror
1.18744[0m
23:32:09,746 - INFO   opencvcameracalibration : [32mCalibrazione Completata[0m
23:32:09,746 - INFO   opencvcameracalibration : [32mDebug - CalibratationMatrix
[817.5328149992055, 0, 514.9661059977743;
 0, 826.2828540747211, 182.5089636701351;
 0, 0, 1][0m
23:32:09,746 - INFO   opencvcameracalibration : [32mDebug - RMS Errror
1.2346[0m
23:32:09,977 - INFO   opencvcameracalibration : [32mCalibrazione Completata[0m
23:32:09,977 - INFO   opencvcameracalibration : [32mDebug - CalibratationMatrix
[840.4247338887209, 0, 522.9858859599206;
 0, 851.4305697141624, 170.1255630597143;
 0, 0, 1][0m
23:32:09,977 - INFO   opencvcameracalibration : [32mDebug - RMS Errror
1.24729[0m
23:32:10,977 - INFO   opencvcameracalibration : [32mCalibrazione Completata[0m
23:32:10,977 - INFO   opencvcameracalibration : [32mDebug - CalibratationMatrix
[833.6065301665844, 0, 531.7262327362275;
 0, 837.7162098411432, 191.1182519874947;
 0, 0, 1][0m
23:32:10,977 - INFO   opencvcameracalibration : [32mDebug - RMS Errror
1.30027[0m
23:32:11,680 - INFO   opencvcameracalibration : [32mCalibrazione Completata[0m
23:32:11,680 - INFO   opencvcameracalibration : [32mDebug - CalibratationMatrix
[839.1224848784861, 0, 540.4924292246635;
 0, 838.3904504107003, 202.5068120102027;
 0, 0, 1][0m
23:32:11,680 - INFO   opencvcameracalibration : [32mDebug - RMS Errror
1.33668[0m
23:32:12,931 - INFO   opencvcameracalibration : [32mCalibrazione Completata[0m
23:32:12,931 - INFO   opencvcameracalibration : [32mDebug - CalibratationMatrix
[840.5363731303771, 0, 546.0173440974904;
 0, 836.7439602974943, 215.3768058285828;
 0, 0, 1][0m
23:32:12,931 - INFO   opencvcameracalibration : [32mDebug - RMS Errror
1.34289[0m
23:32:14,030 - INFO   opencvcameracalibration : [32mCalibrazione Completata[0m
23:32:14,030 - INFO   opencvcameracalibration : [32mDebug - CalibratationMatrix
[846.0133718990674, 0, 572.3074174978154;
 0, 835.6185957436502, 239.1191435431975;
 0, 0, 1][0m
23:32:14,030 - INFO   opencvcameracalibration : [32mDebug - RMS Errror
1.40496[0m
23:32:14,135 - INFO   opencvcameracalibration : [32mCalibrazione Completata[0m
23:32:14,135 - INFO   opencvcameracalibration : [32mDebug - CalibratationMatrix
[843.6574279360213, 0, 570.6707879725157;
 0, 833.2558657894886, 245.376736656356;
 0, 0, 1][0m
23:32:14,135 - INFO   opencvcameracalibration : [32mDebug - RMS Errror
1.36847[0m
23:32:15,829 - INFO   opencvcameracalibration : [32mCalibrazione Completata[0m
23:32:15,837 - INFO   opencvcameracalibration : [32mDebug - CalibratationMatrix
[840.4557083555202, 0, 579.9771884284992;
 0, 828.8417314271956, 264.3660557271086;
 0, 0, 1][0m
23:32:15,837 - INFO   opencvcameracalibration : [32mDebug - RMS Errror
1.38724[0m
23:32:16,017 - INFO   opencvcameracalibration : [32mCalibrazione Completata[0m
23:32:16,017 - INFO   opencvcameracalibration : [32mDebug - CalibratationMatrix
[832.7872097851027, 0, 582.7704055856825;
 0, 819.1080166135433, 281.4692805720201;
 0, 0, 1][0m
23:32:16,017 - INFO   opencvcameracalibration : [32mDebug - RMS Errror
1.37258[0m
23:32:16,045 - NOTICE exc             : [36mMain - analizzate 15 immagini[0m
23:32:16,792 - INFO   opencvcameracalibration : [32mSampler e' stato stoppato[0m
23:32:16,957 - INFO   opencvcameracalibration : [32mSampler e' stato stoppato[0m
23:32:16,997 - INFO   opencvcameracalibration : [32mSampler e' stato stoppato[0m
23:32:17,043 - INFO   opencvcameracalibration : [32mCalibrazione Completata[0m
23:32:17,043 - INFO   opencvcameracalibration : [32mDebug - CalibratationMatrix
[840.1378355676134, 0, 582.7357414319104;
 0, 829.011767982475, 270.7303189819205;
 0, 0, 1][0m
23:32:17,043 - INFO   opencvcameracalibration : [32mDebug - RMS Errror
1.35262[0m
23:32:17,043 - INFO   opencvcameracalibration : [32mProcessor e' stato stoppato[0m
23:32:17,114 - INFO   opencvcameracalibration : [32mCalibrazione Completata[0m
23:32:17,115 - INFO   opencvcameracalibration : [32mDebug - CalibratationMatrix
[840.3085653515369, 0, 583.7709822603101;
 0, 829.2840372994744, 274.5586690124527;
 0, 0, 1][0m
23:32:17,115 - INFO   opencvcameracalibration : [32mDebug - RMS Errror
1.34077[0m
23:32:17,125 - INFO   opencvcameracalibration : [32mProcessor e' stato stoppato[0m
23:32:17,125 - NOTICE exc             : [36mMain - ha messo in pausa i threads[0m
23:32:17,125 - WARN   exc             : [1;33mOpenCVCameraCalibration::onMonitor()  : EXC [OpenCVCameraCalibration]  @ AWM [02] => cycles [2], CPS = 0.16[0m
23:32:17,126 - WARN   exc             : [1;33mOpenCVCameraCalibration::onRun()      : Cycle [2] EXC [OpenCVCameraCalibration]  @ AWM [02][0m
23:32:17,126 - INFO   opencvcameracalibration : [32mSampler e' ripartito[0m
23:32:17,127 - INFO   opencvcameracalibration : [32mSampler e' ripartito[0m
23:32:17,134 - INFO   opencvcameracalibration : [32mSampler e' ripartito[0m
23:32:17,138 - INFO   opencvcameracalibration : [32mProcessor e' ripartito[0m
23:32:17,147 - INFO   opencvcameracalibration : [32mProcessor e' ripartito[0m
23:32:17,167 - NOTICE exc             : [36mMain - sveglia i thread stoppati[0m
23:32:19,684 - INFO   opencvcameracalibration : [32mCalibrazione Completata[0m
23:32:19,684 - INFO   opencvcameracalibration : [32mDebug - CalibratationMatrix
[846.2082442348858, 0, 583.237102597994;
 0, 836.8347812101858, 266.5092393448775;
 0, 0, 1][0m
23:32:19,685 - INFO   opencvcameracalibration : [32mDebug - RMS Errror
1.31333[0m
23:32:19,732 - INFO   opencvcameracalibration : [32mCalibrazione Completata[0m
23:32:19,732 - INFO   opencvcameracalibration : [32mDebug - CalibratationMatrix
[844.2910129950569, 0, 583.529940878343;
 0, 834.9322150083161, 269.6913677742873;
 0, 0, 1][0m
23:32:19,732 - INFO   opencvcameracalibration : [32mDebug - RMS Errror
1.30469[0m
23:32:21,842 - INFO   opencvcameracalibration : [32mCalibrazione Completata[0m
23:32:21,842 - INFO   opencvcameracalibration : [32mDebug - CalibratationMatrix
[848.5060071233911, 0, 582.2636829552114;
 0, 839.9083855680317, 261.8063029646402;
 0, 0, 1][0m
23:32:21,842 - INFO   opencvcameracalibration : [32mDebug - RMS Errror
1.30608[0m
23:32:21,997 - INFO   opencvcameracalibration : [32mCalibrazione Completata[0m
23:32:21,997 - INFO   opencvcameracalibration : [32mDebug - CalibratationMatrix
[848.9935390803311, 0, 582.0008984125252;
 0, 840.8849624606993, 261.3687159450499;
 0, 0, 1][0m
23:32:21,997 - INFO   opencvcameracalibration : [32mDebug - RMS Errror
1.28821[0m
23:32:24,707 - INFO   opencvcameracalibration : [32mCalibrazione Completata[0m
23:32:24,757 - INFO   opencvcameracalibration : [32mDebug - CalibratationMatrix
[850.1140843693012, 0, 580.9634848939186;
 0, 842.6629897262388, 257.6551480742978;
 0, 0, 1][0m
23:32:24,757 - INFO   opencvcameracalibration : [32mDebug - RMS Errror
1.27941[0m
23:32:24,923 - INFO   opencvcameracalibration : [32mCalibrazione Completata[0m
23:32:24,923 - INFO   opencvcameracalibration : [32mDebug - CalibratationMatrix
[850.7903620341024, 0, 580.1210721802879;
 0, 844.0362516091249, 254.192766317253;
 0, 0, 1][0m
23:32:24,923 - INFO   opencvcameracalibration : [32mDebug - RMS Errror
1.26969[0m
23:32:27,166 - INFO   opencvcameracalibration : [32mCalibrazione Completata[0m
23:32:27,166 - INFO   opencvcameracalibration : [32mDebug - CalibratationMatrix
[851.9688143725888, 0, 579.4000688109797;
 0, 845.9551521072902, 250.4036469123498;
 0, 0, 1][0m
23:32:27,166 - INFO   opencvcameracalibration : [32mDebug - RMS Errror
1.25838[0m
23:32:27,918 - INFO   opencvcameracalibration : [32mCalibrazione Completata[0m
23:32:27,918 - INFO   opencvcameracalibration : [32mDebug - CalibratationMatrix
[854.2634154307556, 0, 580.2842555203226;
 0, 849.3583499913809, 246.873651369752;
 0, 0, 1][0m
23:32:27,918 - INFO   opencvcameracalibration : [32mDebug - RMS Errror
1.2483[0m
23:32:30,847 - INFO   opencvcameracalibration : [32mCalibrazione Completata[0m
23:32:30,847 - INFO   opencvcameracalibration : [32mDebug - CalibratationMatrix
[855.4635163479264, 0, 581.2092744240454;
 0, 851.2632879497502, 244.5470072060345;
 0, 0, 1][0m
23:32:30,847 - INFO   opencvcameracalibration : [32mDebug - RMS Errror
1.23561[0m
23:32:31,029 - INFO   opencvcameracalibration : [32mCalibrazione Completata[0m
23:32:31,029 - INFO   opencvcameracalibration : [32mDebug - CalibratationMatrix
[858.8111800014238, 0, 583.5639085812118;
 0, 855.7499027907066, 241.12910395158;
 0, 0, 1][0m
23:32:31,029 - INFO   opencvcameracalibration : [32mDebug - RMS Errror
1.22538[0m
23:32:33,979 - INFO   opencvcameracalibration : [32mCalibrazione Completata[0m
23:32:33,979 - INFO   opencvcameracalibration : [32mDebug - CalibratationMatrix
[863.2710104930123, 0, 589.1409279165991;
 0, 860.4296502820129, 239.1596554593272;
 0, 0, 1][0m
23:32:33,979 - INFO   opencvcameracalibration : [32mDebug - RMS Errror
1.21203[0m
23:32:34,817 - INFO   opencvcameracalibration : [32mCalibrazione Completata[0m
23:32:34,817 - INFO   opencvcameracalibration : [32mDebug - CalibratationMatrix
[866.2943313559412, 0, 592.4288768565241;
 0, 863.9332357831238, 237.8061203825897;
 0, 0, 1][0m
23:32:34,817 - INFO   opencvcameracalibration : [32mDebug - RMS Errror
1.20069[0m
23:32:37,837 - INFO   opencvcameracalibration : [32mCalibrazione Completata[0m
23:32:37,837 - INFO   opencvcameracalibration : [32mDebug - CalibratationMatrix
[869.8659484732931, 0, 596.5799289738608;
 0, 867.8870967262461, 236.4436222339718;
 0, 0, 1][0m
23:32:37,837 - INFO   opencvcameracalibration : [32mDebug - RMS Errror
1.18919[0m
23:32:38,003 - INFO   opencvcameracalibration : [32mCalibrazione Completata[0m
23:32:38,003 - INFO   opencvcameracalibration : [32mDebug - CalibratationMatrix
[870.5980888068533, 0, 596.8393018097825;
 0, 868.914362217714, 235.6594450754976;
 0, 0, 1][0m
23:32:38,003 - INFO   opencvcameracalibration : [32mDebug - RMS Errror
1.17691[0m
23:32:41,147 - INFO   opencvcameracalibration : [32mCalibrazione Completata[0m
23:32:41,147 - INFO   opencvcameracalibration : [32mDebug - CalibratationMatrix
[872.9035032531646, 0, 598.7194471929075;
 0, 871.9946159792304, 234.0892597804967;
 0, 0, 1][0m
23:32:41,147 - INFO   opencvcameracalibration : [32mDebug - RMS Errror
1.16796[0m
23:32:41,177 - NOTICE exc             : [36mMain - analizzate 15 immagini[0m
23:32:41,708 - INFO   opencvcameracalibration : [32mSampler e' stato stoppato[0m
23:32:41,709 - INFO   opencvcameracalibration : [32mSampler e' stato stoppato[0m
23:32:41,879 - INFO   opencvcameracalibration : [32mCalibrazione Completata[0m
23:32:41,879 - INFO   opencvcameracalibration : [32mDebug - CalibratationMatrix
[873.478485626523, 0, 598.6908222420701;
 0, 872.6917086910751, 233.1679597921815;
 0, 0, 1][0m
23:32:41,880 - INFO   opencvcameracalibration : [32mDebug - RMS Errror
1.15545[0m
23:32:41,880 - INFO   opencvcameracalibration : [32mProcessor e' stato stoppato[0m
23:32:41,964 - INFO   opencvcameracalibration : [32mSampler e' stato stoppato[0m
23:32:43,044 - INFO   opencvcameracalibration : [32mCalibrazione Completata[0m
23:32:43,044 - INFO   opencvcameracalibration : [32mDebug - CalibratationMatrix
[874.6990147754385, 0, 599.5176263347226;
 0, 874.4233696897419, 232.1439517641851;
 0, 0, 1][0m
23:32:43,044 - INFO   opencvcameracalibration : [32mDebug - RMS Errror
1.14602[0m
23:32:43,044 - INFO   opencvcameracalibration : [32mProcessor e' stato stoppato[0m
23:32:43,044 - NOTICE exc             : [36mMain - ha messo in pausa i threads[0m
23:32:43,044 - WARN   exc             : [1;33mOpenCVCameraCalibration::onMonitor()  : EXC [OpenCVCameraCalibration]  @ AWM [02] => cycles [3], CPS = 0.11[0m
23:32:43,045 - WARN   exc             : [1;33mOpenCVCameraCalibration::onRelease()  : exit[0m
23:32:43,045 - INFO   opencvcameracalibration : [32mSampler e' ripartito[0m
23:32:43,047 - INFO   opencvcameracalibration : [32mSampler e' ripartito[0m
23:32:43,057 - INFO   opencvcameracalibration : [32mProcessor e' ripartito[0m
23:32:43,067 - INFO   opencvcameracalibration : [32mSampler e' ripartito[0m
23:32:43,087 - INFO   opencvcameracalibration : [32mProcessor e' ripartito[0m
23:32:43,097 - NOTICE exc             : [36mMain chiude i threads
[0m
23:32:43,522 - INFO   opencvcameracalibration : [32mSampler e' tornato[0m
23:32:43,567 - INFO   opencvcameracalibration : [32mSampler e' tornato[0m
23:32:43,568 - INFO   opencvcameracalibration : [32mSampler e' tornato[0m
23:32:44,386 - INFO   opencvcameracalibration : [32mCalibrazione Completata[0m
23:32:44,386 - INFO   opencvcameracalibration : [32mDebug - CalibratationMatrix
[876.526414412186, 0, 600.422916004684;
 0, 876.8132400467842, 229.9524214900004;
 0, 0, 1][0m
23:32:44,386 - INFO   opencvcameracalibration : [32mDebug - RMS Errror
1.12566[0m
23:32:44,388 - INFO   opencvcameracalibration : [32mCalibrazione Completata[0m
23:32:44,389 - INFO   opencvcameracalibration : [32mDebug - CalibratationMatrix
[874.5974537591736, 0, 598.3473726416014;
 0, 874.6977524774358, 231.8923903301946;
 0, 0, 1][0m
23:32:44,389 - INFO   opencvcameracalibration : [32mDebug - RMS Errror
1.12832[0m
23:32:44,397 - INFO   opencvcameracalibration : [32mProcessor e' tornato[0m
23:32:44,397 - INFO   opencvcameracalibration : [32mProcessor e' tornato[0m
23:32:44,397 - NOTICE exc             : [36mMain fa la join dei threads[0m
23:32:44,397 - NOTICE opencvcameracalibration : [36mCAMERA MATRIX_RISULTANTE
[874.5974537591736, 0, 598.3473726416014;
 0, 874.6977524774358, 231.8923903301946;
 0, 0, 1][0m
23:32:44,397 - NOTICE opencvcameracalibration : [36mREPROJ_ERRORS
[0m
23:32:44,397 - NOTICE opencvcameracalibration : [36m0]	0.347448[0m
23:32:44,397 - NOTICE opencvcameracalibration : [36m1]	0.345831[0m
23:32:44,397 - NOTICE opencvcameracalibration : [36m2]	0.34669[0m
23:32:44,397 - NOTICE opencvcameracalibration : [36m3]	0.366489[0m
23:32:44,397 - NOTICE opencvcameracalibration : [36m4]	0.355194[0m
23:32:44,397 - NOTICE opencvcameracalibration : [36m5]	0.377385[0m
23:32:44,397 - NOTICE opencvcameracalibration : [36m6]	0.405644[0m
23:32:44,397 - NOTICE opencvcameracalibration : [36m7]	0.422503[0m
23:32:44,397 - NOTICE opencvcameracalibration : [36m8]	0.436807[0m
23:32:44,397 - NOTICE opencvcameracalibration : [36m9]	0.497875[0m
23:32:44,397 - NOTICE opencvcameracalibration : [36m10]	0.596949[0m
23:32:44,397 - NOTICE opencvcameracalibration : [36m11]	0.663002[0m
23:32:44,397 - NOTICE opencvcameracalibration : [36m12]	0.667903[0m
23:32:44,397 - NOTICE opencvcameracalibration : [36m13]	0.895127[0m
23:32:44,397 - NOTICE opencvcameracalibration : [36m14]	0.804147[0m
23:32:44,397 - NOTICE opencvcameracalibration : [36m15]	1.00759[0m
23:32:44,398 - NOTICE opencvcameracalibration : [36m16]	1.12495[0m
23:32:44,398 - NOTICE opencvcameracalibration : [36m17]	0.997414[0m
23:32:44,398 - NOTICE opencvcameracalibration : [36m18]	1.18423[0m
23:32:44,398 - NOTICE opencvcameracalibration : [36m19]	1.15108[0m
23:32:44,398 - NOTICE opencvcameracalibration : [36m20]	1.18744[0m
23:32:44,398 - NOTICE opencvcameracalibration : [36m21]	1.2346[0m
23:32:44,398 - NOTICE opencvcameracalibration : [36m22]	1.24729[0m
23:32:44,398 - NOTICE opencvcameracalibration : [36m23]	1.30027[0m
23:32:44,398 - NOTICE opencvcameracalibration : [36m24]	1.33668[0m
23:32:44,398 - NOTICE opencvcameracalibration : [36m25]	1.34289[0m
23:32:44,398 - NOTICE opencvcameracalibration : [36m26]	1.40496[0m
23:32:44,398 - NOTICE opencvcameracalibration : [36m27]	1.36847[0m
23:32:44,398 - NOTICE opencvcameracalibration : [36m28]	1.38724[0m
23:32:44,398 - NOTICE opencvcameracalibration : [36m29]	1.37258[0m
23:32:44,398 - NOTICE opencvcameracalibration : [36m30]	1.35262[0m
23:32:44,398 - NOTICE opencvcameracalibration : [36m31]	1.34077[0m
23:32:44,398 - NOTICE opencvcameracalibration : [36m32]	1.31333[0m
23:32:44,398 - NOTICE opencvcameracalibration : [36m33]	1.30469[0m
23:32:44,398 - NOTICE opencvcameracalibration : [36m34]	1.30608[0m
23:32:44,398 - NOTICE opencvcameracalibration : [36m35]	1.28821[0m
23:32:44,398 - NOTICE opencvcameracalibration : [36m36]	1.27941[0m
23:32:44,398 - NOTICE opencvcameracalibration : [36m37]	1.26969[0m
23:32:44,398 - NOTICE opencvcameracalibration : [36m38]	1.25838[0m
23:32:44,398 - NOTICE opencvcameracalibration : [36m39]	1.2483[0m
23:32:44,398 - NOTICE opencvcameracalibration : [36m40]	1.23561[0m
23:32:44,398 - NOTICE opencvcameracalibration : [36m41]	1.22538[0m
23:32:44,398 - NOTICE opencvcameracalibration : [36m42]	1.21203[0m
23:32:44,398 - NOTICE opencvcameracalibration : [36m43]	1.20069[0m
23:32:44,398 - NOTICE opencvcameracalibration : [36m44]	1.18919[0m
23:32:44,398 - NOTICE opencvcameracalibration : [36m45]	1.17691[0m
23:32:44,398 - NOTICE opencvcameracalibration : [36m46]	1.16796[0m
23:32:44,398 - NOTICE opencvcameracalibration : [36m47]	1.15545[0m
23:32:44,398 - NOTICE opencvcameracalibration : [36m48]	1.14602[0m
23:32:44,398 - NOTICE opencvcameracalibration : [36m49]	1.12566[0m
23:32:44,398 - NOTICE opencvcameracalibration : [36m50]	1.12832[0m
23:32:44,398 - INFO   opencvcameracalibration : [32mSTEP 4. Disabling EXC...[0m
23:32:44,398 - NOTICE rpc             : [36mExecution statistics:

[0m
23:32:44,399 - INFO   opencvcameracalibration : [32m===== OpenCVCameraCalibration DONE! =====[0m
  TotCycles    :       3
  StartLatency :      54 [ms]
  AwmWait      :      54 [ms]
  Configure    :       0 [ms]
  Process      :   44216 [ms]

# EXC    AWM   Uses Cycles   Total |      Min      Max |      Avg      Var
#==================================+===================+==================
OpenCVCameraCalibration 002      1      3   44216 | 6284.085 25918.814 | 14739.298 67964672.054
#-------------------------+        +-------------------+------------------
OpenCVCameraCalibration 002         onRun   44216 | 6284.078 25918.670 | 14739.244 67964672.050
OpenCVCameraCalibration 002     onMonitor       0 |    0.008    0.144 |    0.054    0.004
#-------------------------+--------+-------------------+------------------
OpenCVCameraCalibration 002   onConfigure       0 |    0.064    0.064 |    0.064    0.000

